Parameters,Values,Errors
NDsst,401511.08820405306,941.1575706580479
Ncomb_Dsst,939399.1134003727,1192.7844589339802
aDsst,0.7744945544503956,0.0016221860589924475
bDsst,-0.17552455607316908,0.0019710666625734063
cDsst,-0.07787978848677923,0.0017986971999577328
mu_Dsst,2114.4899500212077,0.01946752042431399
sigma_Dsst,8.706400692626591,0.020174374971090536
