NDsst,Ncomb_Dsst,nVelo_uup,nVelo_udown,nVelo_mean,aDsst,alphaR_Dsst,bDsst,cDsst,mu_Dsst,sigma_Dsst
198.3960439034454,220.362554124109,12.397547567786141,38.60245243221386,47.60245243221386,0.006864624878265779,0.020233715001602093,0.011031839464824333,0.00685704332537318,0.10836991195469636,0.08891566832529874
207.17283960758868,231.39640039952064,7.980977247295783,9.019022752704217,70.01902275270422,0.00727284720728516,0.019639146596674095,0.011685089089067624,0.007333642298879006,0.12556822444935278,0.1006624149464379
205.63988554161006,232.5326414734118,7.918021879400257,8.081978120599743,87.08197812059974,0.007006105818605057,0.02060198209351327,0.011494712487198466,0.007022855042739806,0.12891965655717286,0.10351627416925346
203.68036181027855,232.12357318596514,9.884215171314281,9.115784828685719,105.11578482868572,0.006932197256204198,0.02126501487592769,0.011519741270376471,0.006834652234787075,0.13215683438147607,0.1070182854585493
213.12602051294562,250.17442209875298,108.68365607804307,23.31634392195693,139.31634392195693,0.006436910181650823,0.019176422176084174,0.01066095520541932,0.006274950875136298,0.13294068788104596,0.1075643350689246
