NDs1,Ncomb_Ds1,nVelo_uup,nVelo_udown,nVelo_mean,aDs1,bDs1,cDs1,mu_Ds1,sigma_Ds1
5615.6820605121275,69566.15769703008,12.447506683869598,38.5524933161304,47.5524933161304,-0.10664435347123735,-0.009564057799277492,0.011984107163528712,2458.937732662176,18.70852262532536
5846.770173357516,85278.25110186746,8.013300411522636,8.986699588477364,69.98669958847736,-0.0443833592996139,-0.00842739763358491,0.005770442756023897,2458.237641164221,18.95282530397158
6304.180749075919,97371.40538522329,7.919749216300943,8.080250783699057,87.08025078369906,-0.023027168422626865,-0.02257380791890551,-0.0015322325790450009,2457.7856958899956,17.661131223614465
5311.141221371367,106267.9106144732,9.896602407263018,9.103397592736982,105.10339759273698,0.00600565152319632,-0.0329524376712218,0.006336736410964328,2458.004142081942,17.88770700640797
6171.624558412425,134896.27064789593,109.04422752470475,22.955772475295248,138.95577247529525,0.04056166924343518,-0.024753544880019795,0.009932768740235076,2457.34778091859,19.453908677001927
