NDs1,Ncomb_Ds1,aDs1,bDs1,cDs1,mu_Ds1,sigma_Ds1
1879.8894233416563,29411.969222774635,-0.1078727255555485,0.016614086122853422,0.015750725119845654,2457.8845840678337,16.60594269367309
1954.7926310818982,33353.63513229442,-0.10201209597674765,0.0034238845804974716,0.02041890592913287,2456.4684729951227,2.8698616906764816
2931.341439385337,35372.623725408186,-0.06039949572316772,0.015543299924284604,0.003787573873839989,2456.300394289717,3.8670602260322298
1506.0708468856299,38111.28143102915,-0.06613813551281922,-0.009541459895139326,0.025201621489805426,2458.807121338333,2.0000016173895223
2876.9198241228387,45074.20702046932,-0.02262027549382406,-0.001116153987901214,0.010411018429667962,2458.7498410889207,3.2572087640113607
