NDs1,Ncomb_Ds1,aDs1,bDs1,cDs1,mu_Ds1,sigma_Ds1
5176.741200870436,84350.82604744638,-0.10740388394211475,-0.005711463765701197,0.01352587743808975,2457.7646649491608,16.00546757105642
5388.333865787773,95601.59542457722,-0.09115080450605628,-0.00677358901015257,0.002520417891801685,2458.8114662672765,16.63351035955096
6033.585965654836,102630.11903422074,-0.06223729768866182,-0.013346247173860348,-0.0025393565519173933,2457.5145230764133,16.993822468693736
5457.2904641763425,105811.92143931879,-0.06143103186447707,-0.006010247243477984,-0.002828972057022483,2458.6489190348216,17.633602271039166
6953.87881670516,124447.92396093176,-0.007283448569237905,-0.004126867361276432,0.005672491402620494,2458.2989978955034,19.486887583907006
