NDs1,Ncomb_Ds1,aDs1,bDs1,cDs1,mu_Ds1,sigma_Ds1
1219.6152095991597,14376.950684553938,-0.12291072192717589,0.04505438403946016,-0.009297974274476317,2457.734537884008,17.686313611414928
933.3559756733065,16633.380531538925,-0.10046431477286433,6.67259794520092e-05,-0.0031719223839656863,2451.5417799798884,2.6458880611122026
1414.8796042509882,17641.007326442148,-0.07076219678697893,0.002764319096381307,0.004794338742609483,2456.2139892587556,3.922950929853369
957.0822182799308,18910.041431364432,-0.06448775216107894,-0.0008013370234163375,0.013039454084577073,2458.924327906542,2.7560016330231147
1270.7535061268147,22648.732355366912,-0.03304098243649012,-0.03862675950806427,0.004260527041849649,2458.792857826153,3.146162803262442
