Parameters,Values,Errors
NDsst,79937.34547144698,425.1943089297856
Ncomb_Dsst,93805.00631502298,441.19323289020394
aDsst,1.0096793152340764,0.004879717447488829
alphaR_Dsst,-0.6797949911946937,0.014871956565585265
bDsst,-0.022183230089748207,0.0074944874539779605
cDsst,-0.10213012291804802,0.005070322926429505
mu_Dsst,2113.677040162336,0.09052394336390535
sigma_Dsst,6.927432475884176,0.07248371257226793
