Parameters,Values,Errors
NDs1,91043.83244514352,1671.3442623683513
Ncomb_Ds1,1217805.476406321,1975.8544288998237
aDs1,-0.06431225793209006,0.0018137914867208949
bDs1,-0.0005538450495512492,0.0023942515016988075
cDs1,0.001627635486638468,0.0017382123439602104
mu_Ds1,2457.915913192488,0.19888042566071817
sigma_Ds1,17.40858864097052,0.2581548700664271
