NDsst,Ncomb_Dsst,aDsst,alphaR_Dsst,bDsst,cDsst,mu_Dsst,sigma_Dsst
177.48692536447197,182.35648045641938,0.010753836512515491,0.0180834928738296,0.01565951748479355,0.010872995708167466,0.08979700082772979,0.08081908351235345
188.79720273794555,194.32126503233485,0.011058758975914351,0.022818369424422613,0.016460670380480824,0.011280683016497761,0.14291122297163383,0.1177931810196382
189.71341540508547,195.88420421368573,0.010937256043540788,0.02625244044028996,0.016623918081605904,0.011248630564777429,0.16836072519845402,0.13656362192052107
178.70936368805178,186.81596702430215,0.010772277342173897,0.017764803628665504,0.016265596332311727,0.010532189881689913,0.10626762755077834,0.095338370010007
185.76232577621613,198.0650360613945,0.010393095401189711,0.021986587453232787,0.015998298109068276,0.010567489300734145,0.152355166841744,0.12728243692124463
