NDs1,Ncomb_Ds1,aDs1,bDs1,cDs1,mu_Ds1,sigma_Ds1
606.7888032915394,665.0439576938224,0.0068980164266130295,0.01085625061408857,0.007490021488355758,1.0166401010521895,1.8495137907623072
408.1836142196539,505.87110694625153,0.006459855350636534,0.008129819790946069,0.006043173905172061,0.8743461447472782,1.0083424473438125
543.8261822236518,625.0794513825022,0.0062412220053356116,0.00859955650122135,0.006257366607703485,0.8750266813151484,1.2725947612478343
318.2075913284016,448.9778708198064,0.0061418323308659595,0.006776001425405465,0.005724845148651347,0.967147546116621,0.7522863878264889
729.611474163642,805.9034842444307,0.005680019501947964,0.008696219537475347,0.00608934490542179,1.313449077717678,1.6072589536696746
