Parameters,Values,Errors
alphaL_Ds1,2.2488475922450624,0.22847088483607747
alphaR_Ds1,1.0604768311199864,0.1330735486812719
mu_Ds1,2467.5220165656933,0.7986508371548098
nL_Ds1,1.3974881349682555,0.8423990962841964
nR_Ds1,3.8145340356743884,1.5248110559669596
sigma_Ds1,19.731689110518683,0.6859038479842177
