Parameters,Values,Errors
alphaL_Ds1,1.9580037262081982,0.19434338567067388
alphaR_Ds1,1.2973564229957635,0.1615014955799342
mu_Ds1,2466.0481315310144,0.5844729311213541
nL_Ds1,2.208407016539221,0.9167971484987826
nR_Ds1,2.8407800681406137,0.9246048578587767
sigma_Ds1,19.527053409395695,0.65458686161932
