Parameters,Values,Errors
alphaL_Ds1,2.343551816911624,0.31240895474191643
alphaR_Ds1,1.3769704785981902,0.15827042003705427
mu_Ds1,2468.0063633566974,0.6370369014928201
nL_Ds1,1.6769161973684055,1.2043787998912787
nR_Ds1,2.565753264469911,0.8659748979138822
sigma_Ds1,19.629218990106004,0.6042932067135833
