Parameters,Values,Errors
alphaL_Ds1,2.2216518043997726,0.13762404626311042
alphaR_Ds1,1.2440883770086617,0.07630520161640897
mu_Ds1,2466.9989981060016,0.3475632598483571
nL_Ds1,1.5584540840490602,0.4976928940562564
nR_Ds1,3.2741927491910183,0.5842095071007245
sigma_Ds1,19.64339491545573,0.3366767098461292
