1.861567429937703992e+03
1.072694659419973050e+03
7.337756125451396656e+03
5.849283488636800588e-01
1.757974183852950567e-02
-9.051581468942693220e-03
9.260291400343042767e+00
-6.513215942513866707e+00
