Parameters,Values,Errors
delta,1.3693287297996504,0.06346299899547225
gamma,-0.010000229652498582,0.00918593656182054
lda,7.296060797410415,0.4502960938872387
mu,0.5555430574990297,0.12007888749299056
